{
  "_probe": {
    "id": "serp_property",
    "url": "https://api.ikman.lk/v1/serp?category=409&page=1",
    "method": "GET",
    "status": 200,
    "verified_at": "2026-07-20T05:03:56.052416+00:00",
    "fingerprint": {
      "type": "object",
      "keys": [
        "pagination",
        "serp"
      ]
    }
  },
  "response": {
    "pagination": {
      "page": 1,
      "per_page": 25,
      "total": 65664,
      "pages": 2627,
      "next_page_url": "https://api.ikman.lk/v1/serp?category=409&page=2&next_page_token=1784523835",
      "next_page_token": "1784523835"
    },
    "serp": {
      "categories": [
        {
          "id": 942,
          "name": "Land For Sale",
          "count": 31686
        },
        {
          "id": 415,
          "name": "Houses For Sale",
          "count": 19293
        },
        {
          "id": 416,
          "name": "House Rentals",
          "count": 3637
        },
        {
          "id": 937,
          "name": "Apartments For Sale",
          "count": 3184
        },
        {
          "id": 940,
          "name": "Commercial Property Rentals",
          "count": 2565
        },
        {
          "id": 938,
          "name": "Apartment Rentals",
          "count": 2314
        },
        {
          "id": 939,
          "name": "Commercial Properties For Sale",
          "count": 1605
        },
        {
          "id": 413,
          "name": "Room & Annex Rentals",
          "count": 773
        },
        {
          "id": 936,
          "name": "Holiday & Short-Term Rental",
          "count": 421
        },
        {
          "id": 943,
          "name": "Land Rentals",
          "count": 186
        }
      ],
      "locations": [
        {
          "id": 1506,
          "name": "Colombo",
          "count": 41301
        },
        {
          "id": 1577,
          "name": "Gampaha",
          "count": 11662
        },
        {
          "id": 1620,
          "name": "Kalutara",
          "count": 3381
        },
        {
          "id": 1636,
          "name": "Kandy",
          "count": 1361
        },
        {
          "id": 1674,
          "name": "Kurunegala",
          "count": 1327
        },
        {
          "id": 1432,
          "name": "Ampara",
          "count": 81
        },
        {
          "id": 1452,
          "name": "Anuradhapura",
          "count": 596
        },
        {
          "id": 1475,
          "name": "Badulla",
          "count": 331
        },
        {
          "id": 1491,
          "name": "Batticaloa",
          "count": 127
        },
        {
          "id": 1559,
          "name": "Galle",
          "count": 1245
        },
        {
          "id": 1592,
          "name": "Hambantota",
          "count": 797
        },
        {
          "id": 1605,
          "name": "Jaffna",
          "count": 206
        },
        {
          "id": 1658,
          "name": "Kegalle",
          "count": 209
        },
        {
          "id": 1670,
          "name": "Kilinochchi",
          "count": 22
        },
        {
          "id": 1706,
          "name": "Mannar",
          "count": 11
        },
        {
          "id": 1712,
          "name": "Matale",
          "count": 338
        },
        {
          "id": 1724,
          "name": "Matara",
          "count": 1269
        },
        {
          "id": 1740,
          "name": "Monaragala",
          "count": 120
        },
        {
          "id": 1752,
          "name": "Mullativu",
          "count": 2
        },
        {
          "id": 1757,
          "name": "Nuwara Eliya",
          "count": 613
        },
        {
          "id": 1763,
          "name": "Polonnaruwa",
          "count": 56
        },
        {
          "id": 1771,
          "name": "Puttalam",
          "count": 334
        },
        {
          "id": 1788,
          "name": "Ratnapura",
          "count": 178
        },
        {
          "id": 1806,
          "name": "Trincomalee",
          "count": 77
        },
        {
          "id": 1818,
          "name": "Vavuniya",
          "count": 20
        }
      ],
      "types": [
        {
          "key": "for_sale",
          "count": 55633
        },
        {
          "key": "to_buy",
          "count": 135
        },
        {
          "key": "for_rent",
          "count": 9635
        },
        {
          "key": "to_rent",
          "count": 261
        }
      ],
      "sort_options": [
        "price",
        "date"
      ],
      "sort_option": "date",
      "sort_order": "desc",
      "top_ads": [],
      "spotlights": [],
      "buy_now_filter": {
        "applicable": false
      },
      "enhancements": {
        "cars": false,
        "properties": false,
        "jobs": false
      },
      "results": [
        {
          "id": "6a567c723f33f5dd8b724a21",
          "slug": "brand-new-house-for-sale-colombo-846",
          "title": "Brand new house",
          "type": "for_sale",
          "date": "2026-07-14T23:44:11+05:30",
          "deactivates": "2026-09-12T23:44:11+05:30",
          "area": {
            "id": 1506,
            "name": "Colombo"
          },
          "location": {
            "id": 1541,
            "name": "Maharagama"
          },
          "category": {
            "id": 415,
            "name": "Houses For Sale"
          },
          "contact_card": {
            "chat_enabled": true,
            "delivery_methods": [],
            "account_type": "private",
            "opt_out": true,
            "_redacted": true
          },
          "features": {
            "buy_now": false,
            "listing_fee": false
          },
          "by_paying_member": true,
          "by_authorized_dealer": false,
          "by_featured_member": false,
          "membership_details": {
            "level": "premium"
          },
          "info": "Rs 46,000,000",
          "status": "published",
          "details": [
            "Bedrooms: 4",
            "Bathrooms: 4"
          ],
          "url": "http://ikman.lk/en/ad/brand-new-house-for-sale-colombo-846",
          "images": {
            "ids": [
              "25d04af5-622e-49e3-a3eb-77a55c655c61",
              "b3d0f579-3d47-45aa-891f-8904934741ec",
              "3f543679-b1af-4dcb-a707-af1f72dba661",
              "cec68977-8561-46a0-8163-e6b151fddf21",
              "2a1219cc-6046-4e98-9220-12de11ea2cb3",
              "7eaaafb1-6e6d-4609-850c-0b84182e2bbc",
              "09b2d9af-e78c-4b33-a076-9cf09dd645fc",
              "309838e9-6ce6-4794-b126-bdd673813f1a",
              "abf13159-d4f0-4352-b43a-dd71615fa3ac",
              "e118c03d-8855-42e8-9d34-959d2888198d",
              "97fb8520-69f3-4f75-8716-d21e7595c272",
              "c97d9120-174c-4f7a-b773-fbfafc37e102",
              "f8ae6bee-5c2b-48e5-ab72-8a01d9fee025",
              "f1b2c2b8-a3a2-40f8-894f-f593a9b9b150",
              "4e240145-73b9-4ff5-aea1-f109bcda85d0",
              "0fabe9ce-dc62-4ca6-a784-640a6f24a628",
              "1a2b72fc-826e-4802-8733-3bc997527b35",
              "9b62d83d-b0a4-4bae-a403-0151b5fc5fde",
              "de59590d-8f74-4a1e-967c-8890d8bfdc41",
              "30a5047d-dcc8-4efa-8f73-75c0cc8049db"
            ],
            "base_uri": "https://i.ikman-st.com"
          },
          "account": "[redacted]",
          "promotions": {
            "top_ad": false,
            "bump_up": false,
            "urgent_ad": false,
            "spotlight": false,
            "featured_ad": true
          },
          "display_preferences": {
            "use_featured_ads_ui": true
          },
          "money": {
            "label": "Price",
            "amount": "Rs 46,000,000"
          },
          "layouts": {
            "classic": {
              "info": "Rs 46,000,000",
              "details": [
                "Bedrooms: 4",
                "Bathrooms: 4"
              ],
              "serp_images_enabled": true
            },
            "single_column": {
              "info": "Rs 46,000,000",
              "details": [
                "2,600.0 sqft",
                "Bedrooms: 4",
                "Bathrooms: 4"
              ],
              "serp_images_enabled": true
            },
            "fluid": {
              "info": "Rs 46,000,000",
              "details": [],
              "serp_images_enabled": true
            }
          },
          "shop": {
            "id": "57a9bc605dac93000173cc86",
            "slug": "asitha-properties",
            "name": "Asitha Properties",
            "tagline": "Property Services",
            "description": "Giving you the perfect property solutions so that you can spend your time comfortably, enjoyably, and safely among the sole asset where your investment lasts for generations. \r\n\r\nFor any clarifications please contact us and we are more than happy to resolve an issues or problems you may face and serve you well.",
            "logo": {
              "id": "f0756832-799b-4f9b-870d-ef15cca9cfd2",
              "base_uri": "https://i.ikman-st.com/u"
            },
            "banner": {
              "id": "15b15033-feab-47e7-a644-cf3e16008619",
              "base_uri": "https://i.ikman-st.com/u"
            },
            "contact_card": {
              "_redacted": true
            },
            "job_page": false,
            "location_id": 1541
          }
        },
        {
          "id": "6a0d04abf662889c9dc56567",
          "slug": "land-for-sale-kiribathgoda-for-sale-gampaha-792",
          "title": "Land For Sale Kiribathgoda",
          "type": "for_sale",
          "date": "2026-07-20T10:33:25+05:30",
          "deactivates": "2026-09-18T10:33:25+05:30",
          "area": {
            "id": 1577,
            "name": "Gampaha"
          },
          "location": {
            "id": 1586,
            "name": "Kiribathgoda"
          },
          "category": {
            "id": 942,
            "name": "Land For Sale"
          },
          "contact_card": {
            "chat_enabled": true,
            "delivery_methods": [],
            "account_type": "private",
            "opt_out": true,
            "_redacted": true
          },
          "features": {
            "buy_now": false,
            "listing_fee": false
          },
          "by_paying_member": true,
          "by_authorized_dealer": true,
          "by_featured_member": false,
          "membership_details": {
            "level": "premium"
          },
          "info": "Rs 1,950,000 per perch",
          "status": "published",
          "details": [
            "7.0 perches"
          ],
          "url": "http://ikman.lk/en/ad/land-for-sale-kiribathgoda-for-sale-gampaha-792",
          "images": {
            "ids": [
              "8e124351-759c-4c53-8e10-2513d66ee588",
              "a46af3a7-8c88-4abd-bf81-3cb337151e56",
              "d1c157d5-54cb-4ea3-9d21-29078e16d5e0",
              "73a33630-f9bf-499a-ab39-e5ea1c59cfd8",
              "cdc5599c-15fb-4376-a612-22c1a1f887c3"
            ],
            "base_uri": "https://i.ikman-st.com"
          },
          "account": "[redacted]",
          "promotions": {
            "top_ad": false,
            "bump_up": false,
            "urgent_ad": false,
            "spotlight": false,
            "featured_ad": false
          },
          "money": {
            "label": "Price",
            "amount": "Rs 1,950,000 per perch"
          },
          "layouts": {
            "classic": {
              "info": "Rs 1,950,000 per perch",
              "details": [
                "7.0 perches"
              ],
              "serp_images_enabled": true
            },
            "single_column": {
              "info": "Rs 1,950,000 per perch",
              "details": [
                "7.0 perches",
                "Residential"
              ],
              "serp_images_enabled": true
            },
            "fluid": {
              "info": "Rs 1,950,000 per perch",
              "details": [],
              "serp_images_enabled": true
            }
          },
          "shop": {
            "id": "624fc580a152b90001c28560",
            "slug": "primelands-colombo-8",
            "name": "Prime Lands (Pvt) Ltd",
            "tagline": "Where Dreams Come Home",
            "description": "Giving you the perfect property solutions so that you can spend your time comfortably, enjoyably, and safely among the sole asset where your investment lasts for generations.\r\n\r\nFor any clarifications please contact us and we are more than happy to resolve an issues or problems you may face and serve you well.",
            "logo": {
              "id": "6a417b92-aa18-4106-a932-8116a646ce59",
              "base_uri": "https://i.ikman-st.com/u"
            },
            "banner": {
              "id": "03415858-a664-432c-9afd-f01aeeb9d41a",
              "base_uri": "https://i.ikman-st.com/u"
            },
            "contact_card": {
              "_redacted": true
            },
            "job_page": false,
            "location_id": 1519
          }
        }
      ]
    },
    "_truncated": {
      "list_key": "_serp_results",
      "kept": 2,
      "original_len": 26
    }
  }
}
